X1,X2,X3,X4
0.34,3.71,2.87,30.87
0.39,5.08,3.38,43.85
0.48,5.13,4.13,44.51
0.31,3.95,3.6,46
0.36,5.51,3.11,47.02
0.33,4.07,3.95,48.5
0.43,4.77,4.39,48.75
0.48,6.69,3.5,48.86
0.21,3.71,2.82,48.92
0.32,4.35,3.59,48.38
0.54,7.89,3.47,50.56
0.32,5.37,3.07,51.15
0.4,4.95,4.43,55.34
0.31,4.97,3.56,56.67
0.44,6.68,3.86,58.49
0.32,4.8,3.31,49.99
0.5,6.43,3.29,42.25
0.36,5.99,3.1,51.7
0.48,6.3,4.8,63.3
0.4,6,3.06,46.23
0.42,6.04,3.85,55.08
0.55,6.45,5,58.8
0.5,5.55,5.23,57.46
0.34,4.27,4,50.35
0.4,4.58,2.82,32.48
