Y1,Y2,Y3,Y4
4.8,5,6.5,7
5.4,5,6,6.4
4.9,5.1,5.9,6.5
5.7,5.2,6.4,6.4
4.2,4.6,5.3,6.3
6,5.3,5.8,6.4
5.1,5.2,6.2,6.5
4.8,4.6,5.7,5.7
5.3,5.4,6.8,6.6
4.6,4.4,5.7,5.6
4.5,4,5,5.9
4.4,4.2,5.6,5.5
