rows,columns,treatments,values
1,1,B,220
2,1,A,74
3,1,D,188
4,1,E,295
5,1,C,187
6,1,F,90
1,2,F,98
2,2,E,238
3,2,C,279
4,2,B,222
5,2,D,90
6,2,A,124
1,3,D,149
2,3,B,
3,3,F,118
4,3,A,64
5,3,E,242
6,3,C,195
1,4,A,92
2,4,C,228
3,4,E,278
4,4,D,104
5,4,F,96
6,4,B,109
1,5,E,282
2,5,F,48
3,5,B,176
4,5,C,213
5,5,A,66
6,5,D,79
1,6,C,160
2,6,D,168
3,6,A,
4,6,F,163
5,6,B,188
6,6,E,211
